…
all_gaps <- bind_rows(inet_gaps, cell_gaps)

# if the gap is at the head or tail of a series, yleft or yright will be NA;
# filter out those
gaps <- all_gaps %>%
  filter(!is.na(yleft) & !is.na(yright))
gaps
```

    ## # A tibble: 167 x 5
    ##    gwcode   yleft    yright     n variable          
    ##     <dbl>   <dbl>     <dbl> <int> <chr>             
    ##  1     31 0       0.960         6 internet_users_pct
    ##  2     40 0       0.0000917     6 internet_users_pct
    ##  3     41 0       0.00748       7 internet_users_pct
    ##  4     41 0.00748 0.0240        3 internet_users_pct
    ##  5     42 0       0.0172        6 internet_users_pct
    ##  6     51 0       0.0368        5 internet_users_pct
    ##  7     52 0       0.158         6 internet_users_pct
    ##  8     53 0       0.00775       6 internet_users_pct
    ##  9     80 0       0.0454        6 internet_users_pct
    ## 10     80 5.68    9.8           3 internet_users_pct
    ## # … with 157 more rows
…
