…
raw <- raw %>%
    rename(gwcode = gwid) %>%
    mutate(reg_aut = case_when(
      is.na(reg_aut) ~ FALSE,
      TRUE ~ reg_aut
    ))
  raw
```

    ## # A tibble: 4,255 x 11
    ##    gwcode statename  from    to group groupid gwgroupid umbrella   size status
    ##     <int> <chr>     <int> <int> <chr>   <dbl>     <dbl>    <int>  <dbl> <chr> 
    ##  1      2 United S…  1946  1965 Whit…    1000    201000       NA 0.691  MONOP…
    ##  2      2 United S…  1946  1965 Lati…    2000    202000       NA 0.125  IRREL…
    ##  3      2 United S…  1946  1965 Afri…    3000    203000       NA 0.124  DISCR…
    ##  4      2 United S…  1946  1965 Asia…    4000    204000       NA 0.036  IRREL…
    ##  5      2 United S…  1946  1965 Amer…    5000    205000       NA 0.0078 POWER…
    ##  6      2 United S…  1946  1965 Arab…    6000    206000       NA 0.0042 IRREL…
    ##  7      2 United S…  1966  2008 Whit…    1000    201000       NA 0.691  DOMIN…
    ##  8      2 United S…  1966  2008 Lati…    2000    202000       NA 0.125  POWER…
    ##  9      2 United S…  1966  2008 Afri…    3000    203000       NA 0.124  POWER…
    ## 10      2 United S…  1966  2008 Asia…    4000    204000       NA 0.036  POWER…
    ## # … with 4,245 more rows, and 1 more variable: reg_aut <lgl>
…
