…
What I’m going to do here is analyize the tuning results for the
forecast models I ran in late April / early May, and check whether I can
just use fixed HPs without a great cost to accuracy.

This is what the raw tuning results data look like:

    ## # A tibble: 600 x 7
    ##    task_id  year iters classif.auc num.trees  mtry min.node.size
    ##    <chr>   <dbl> <dbl>       <dbl>     <dbl> <dbl>         <dbl>
    ##  1 attempt  2010    16       0.821      1000    10           285
    ##  2 attempt  2010    16       0.821      1000    14           240
    ##  3 attempt  2010    16       0.822      1000    10           235
    ##  4 attempt  2010    16       0.824      1000    21           263
    ##  5 attempt  2010    16       0.820      1000    10           128
    ##  6 attempt  2010    16       0.822      1000    25            65
    ##  7 attempt  2010    16       0.824      1000    25           298
    ##  8 attempt  2010    16       0.822      1000    19           118
    ##  9 attempt  2010    16       0.824      1000    24           241
    ## 10 attempt  2010    16       0.822      1000    18           230
    ## # … with 590 more rows
…
